^C:\USERS\ZAG\SOURCE\REPOS\CONSOLEAPPLICATION21563\DEBUG\CONSOLEAPPLICATION21563.OBJ|C:\USERS\ZAG\SOURCE\REPOS\CONSOLEAPPLICATION21563\DEBUG\STDAFX.OBJ
G:\WINDOWS KITS\10\LIB\10.0.17134.0\UM\X86\KERNEL32.LIB
G:\WINDOWS KITS\10\LIB\10.0.17134.0\UM\X86\USER32.LIB
G:\WINDOWS KITS\10\LIB\10.0.17134.0\UM\X86\GDI32.LIB
G:\WINDOWS KITS\10\LIB\10.0.17134.0\UM\X86\WINSPOOL.LIB
G:\WINDOWS KITS\10\LIB\10.0.17134.0\UM\X86\COMDLG32.LIB
G:\WINDOWS KITS\10\LIB\10.0.17134.0\UM\X86\ADVAPI32.LIB
G:\WINDOWS KITS\10\LIB\10.0.17134.0\UM\X86\SHELL32.LIB
G:\WINDOWS KITS\10\LIB\10.0.17134.0\UM\X86\OLE32.LIB
G:\WINDOWS KITS\10\LIB\10.0.17134.0\UM\X86\OLEAUT32.LIB
G:\WINDOWS KITS\10\LIB\10.0.17134.0\UM\X86\UUID.LIB
G:\WINDOWS KITS\10\LIB\10.0.17134.0\UM\X86\ODBC32.LIB
G:\WINDOWS KITS\10\LIB\10.0.17134.0\UM\X86\ODBCCP32.LIB
C:\USERS\ZAG\SOURCE\REPOS\CONSOLEAPPLICATION21563\DEBUG\CONSOLEAPPLICATION21563.OBJ
C:\USERS\ZAG\SOURCE\REPOS\CONSOLEAPPLICATION21563\DEBUG\STDAFX.OBJ
C:\WINDOWS\SYSTEM32\TZRES.DLL
C:\WINDOWS\GLOBALIZATION\SORTING\SORTDEFAULT.NLS
C:\PROGRAM FILES (X86)\MICROSOFT VISUAL STUDIO\2017\COMMUNITY\VC\TOOLS\MSVC\14.14.26428\LIB\X86\MSVCRTD.LIB
C:\PROGRAM FILES (X86)\MICROSOFT VISUAL STUDIO\2017\COMMUNITY\VC\TOOLS\MSVC\14.14.26428\LIB\X86\OLDNAMES.LIB
C:\PROGRAM FILES (X86)\MICROSOFT VISUAL STUDIO\2017\COMMUNITY\VC\TOOLS\MSVC\14.14.26428\LIB\X86\VCRUNTIMED.LIB
G:\WINDOWS KITS\10\LIB\10.0.17134.0\UCRT\X86\UCRTD.LIB
C:\PROGRAM FILES (X86)\MICROSOFT VISUAL STUDIO\2017\COMMUNITY\VC\TOOLS\MSVC\14.14.26428\BIN\HOSTX86\X86\VCTIP.EXE
